{"total_results": 10000, "total_pages": 500, "page": 1, "results": [{"poster_path": "/l3JgqdqILmpSq5VFZA69mP6bmME.jpg", "title": "Y\u0131ld\u0131zlara Do\u011fru", "overview": "Askeri m\u00fchendis olan Roy McBride'\u0131n babas\u0131 Clifford, 20 y\u0131l \u00f6nce uzayda insan d\u0131\u015f\u0131 bir varl\u0131\u011f\u0131n emaresini aramak i\u00e7in \u00e7\u0131kt\u0131\u011f\u0131 g\u00f6revde kaybolmu\u015ftur. Roy, babas\u0131n\u0131n hala hayatta oldu\u011funa dair bir kan\u0131t elde eder ve bu kan\u0131t\u0131n s\u0131rf Roy\u2019un babas\u0131 i\u00e7in de\u011fil, t\u00fcm kainat i\u00e7in tehlikeli olabilece\u011fini g\u00f6r\u00fcr. Bunun \u00fczerine Roy, babas\u0131n\u0131 bulmak i\u00e7in galakside tek y\u00f6nl\u00fc bir yolculu\u011fa \u00e7\u0131kar.", "release_date": "2019-09-17", "popularity": 657.427, "original_title": "Ad Astra", "backdrop_path": "/5BwqwxMEjeFtdknRV792Svo0K1v.jpg", "vote_count": 3141, "video": false, "adult": false, "vote_average": 6, "genre_ids": [18, 878], "id": 419704, "original_language": "en"}, {"poster_path": "/mWOkjqqzWiaFC65i2nFuMzM9jne.jpg", "title": "Scary Movie 6", "overview": "", "release_date": "2021-04-02", "popularity": 321.014, "original_title": "Scary Movie 6", "backdrop_path": "/wuJpiGNGv7wLg52ONizLrOugYp9.jpg", "vote_count": 0, "video": false, "adult": false, "vote_average": 0, "genre_ids": [35, 27, 53], "id": 668203, "original_language": "en"}, {"poster_path": "/NTUjd2gbhpzvkkZdqgpEcIhLAh.jpg", "title": "Durdurulamaz G\u00fc\u00e7", "overview": "Denizci olan Ray Garrison isimli bir adam ve kar\u0131s\u0131 \u00f6ld\u00fcr\u00fcl\u00fcr. Bunun ard\u0131ndan bir grup varl\u0131klar\u0131n\u0131 gizleyen bilim adam\u0131 Ray Garrison'\u0131 nanoteknoloji yard\u0131m\u0131yla hayata geri d\u00f6nd\u00fcr\u00fcr. Ray bundan sonra kendi gibi olan s\u00fcper askerlerle \u00e7al\u0131\u015facakt\u0131r. Bu s\u0131rada ise ge\u00e7mi\u015fiyle ilgili hi\u00e7bir \u015fey hat\u0131rlam\u0131yordur. Ama haf\u0131zas\u0131 geri gelmeye ve kar\u0131s\u0131 ile kendisini kimin \u00f6ld\u00fcrd\u00fc\u011f\u00fcn\u00fc hat\u0131rlamaya ba\u015flad\u0131\u011f\u0131nda her \u015feyi yok etmek i\u00e7in m\u00fccadele vermeye ba\u015flayacakt\u0131r. Garrison, yava\u015f yava\u015f bu cinayetin ard\u0131ndaki komployu ortaya \u00e7\u0131karacakt\u0131r.", "release_date": "2020-03-05", "popularity": 251.252, "original_title": "Bloodshot", "backdrop_path": "/ocUrMYbdjknu2TwzMHKT9PBBQRw.jpg", "vote_count": 1865, "video": false, "adult": false, "vote_average": 7.2, "genre_ids": [28, 878], "id": 338762, "original_language": "en"}, {"poster_path": "/4iOIdI4AYGPFCpsWNLRqtPj9KPM.jpg", "title": "Kirpi Sonic", "overview": "Sonic the Hedgehog, pe\u015fine d\u00fc\u015fen yetkililerden kurtulup, \u015feytani doktorun elinde bulunan y\u00fcz\u00fckleri geri almaya \u00e7al\u0131\u015fan Sonic'in hikayesini konu ediyor. H\u00fck\u00fcmet, insan bi\u00e7iminde bir kirpi olan Sonic\u2019i yakalamak i\u00e7in pe\u015fine d\u00fc\u015fer. Devlet g\u00f6revlileri her yerde Sonic\u2019i aramaya ba\u015flar. Sonic ise bu s\u0131rada \u015feytani doktor Eggman\u2019\u0131n ele ge\u00e7irdi\u011fi y\u00fcz\u00fckleri geri almaya \u00e7al\u0131\u015fmaktad\u0131r. K\u00fc\u00e7\u00fck bir kasaba olan Green Hills\u2019in \u015ferifi Tom Wachowski, Sonic\u2019in pe\u015fine d\u00fc\u015fen h\u00fck\u00fcmet yetkililerinden ka\u00e7may\u0131 ba\u015far\u0131p, doktordan y\u00fcz\u00fckleri geri alabilmesi i\u00e7in yard\u0131m etmeye karar verir. Ancak bu sand\u0131\u011f\u0131 kadar kolay olmayacakt\u0131r.", "release_date": "2020-02-12", "popularity": 215.903, "original_title": "Sonic the Hedgehog", "backdrop_path": "/stmYfCUGd8Iy6kAMBr6AmWqx8Bq.jpg", "vote_count": 3112, "video": false, "adult": false, "vote_average": 7.6, "genre_ids": [28, 878, 35, 10751], "id": 454626, "original_language": "en"}, {"poster_path": "/43r7f1dDKLCZAje63CcFG3kIkDP.jpg", "title": "Extraction", "overview": "Korkusuz ve kanunsuz bir paral\u0131 asker olan Tyler Rake, hapishanede yatmakta olan uluslararas\u0131 bir su\u00e7 baronunun ka\u00e7\u0131r\u0131lan o\u011flunu kurtarmak i\u00e7in bir g\u00f6reve d\u00e2hil olur. Ancak silah ve uyu\u015fturucu ka\u00e7ak\u00e7\u0131lar\u0131n\u0131n karanl\u0131k yeralt\u0131 d\u00fcnyas\u0131nda, zaten \u00f6l\u00fcmc\u00fcl olan bu g\u00f6rev imk\u00e2ns\u0131za yak\u0131n bir h\u00e2l al\u0131r ve bu durum, hem Rake\u2019in hem de \u00e7ocu\u011fun hayat\u0131n\u0131 sonsuza dek de\u011fi\u015ftirir.", "release_date": "2020-04-24", "popularity": 173.89, "original_title": "Extraction", "backdrop_path": "/1R6cvRtZgsYCkh8UFuWFN33xBP4.jpg", "vote_count": 517, "video": false, "adult": false, "vote_average": 7.4, "genre_ids": [18, 28, 53], "id": 545609, "original_language": "en"}, {"poster_path": "/dKgV8T3inB5EnVDg0Jeh2L6ttQ9.jpg", "title": "Willoughby Ailesi", "overview": "Fena h\u00e2lde bencil ebeveynlere sahip d\u00f6rt karde\u015f, onlardan sonsuza dek kurtulmak i\u00e7in bir plan yapar ve kendilerine kusursuz bi\u00e7imde sorunlu bir aile kurar.", "release_date": "2020-04-22", "popularity": 157.467, "original_title": "The Willoughbys", "backdrop_path": "/9foQsz7j1o2pGCKFGkzlxJteE5W.jpg", "vote_count": 105, "video": false, "adult": false, "vote_average": 7.3, "genre_ids": [16, 35, 10751], "id": 560044, "original_language": "en"}, {"poster_path": "/atkFIlCNNQaqpXdFGNTsUo2Tk21.jpg", "title": "Bad Boys: Her Zaman \u00c7\u0131lg\u0131n", "overview": "Bad Boys For Life'ta ba\u015fkahramanlar\u0131m\u0131z Marcus ve Mike, son kez bir maceraya a\u00e7\u0131l\u0131yorlar. Miami'de polis olarak g\u00f6rev yapan ikili, yine bula\u015fmamas\u0131 gereken bir olaya bula\u015f\u0131yor. Modern ve uzman bir polis biriminin yolu Bad Boys ile kar\u015f\u0131la\u015f\u0131r. \u00c7\u00fcnk\u00fc Miami yeni bir tehlike ile kar\u015f\u0131 kar\u015f\u0131yad\u0131r. Uyu\u015fturucu kartelinin ba\u015f\u0131nda bulunan Armando Armas'\u0131n yakalanmas\u0131 gerekmektedir. Ancak Armando so\u011fukkanl\u0131 ve \u00fcnl\u00fc bir katildir. Kartele son derece sad\u0131kt\u0131r ve annesi taraf\u0131ndan Mike'\u0131 \u00f6ld\u00fcrmesi i\u00e7in g\u00f6nderilmi\u015ftir.", "release_date": "2020-01-15", "popularity": 155.143, "original_title": "Bad Boys for Life", "backdrop_path": "/upUy2QhMZEmtypPW3PdieKLAHxh.jpg", "vote_count": 3471, "video": false, "adult": false, "vote_average": 7.2, "genre_ids": [28, 80, 53], "id": 38700, "original_language": "en"}, {"poster_path": "/ZB3EBbF3HHywU7jfcwP8eDnUwn.jpg", "title": "Y\u0131rt\u0131c\u0131 Ku\u015flar (ve Muhte\u015fem Harley Quinn)", "overview": "Harley Quinn'in Joker'den ayr\u0131lmas\u0131ndan sonra Black Canary, Huntress ve Dedektif Renee Montoya'ya kat\u0131larak Cassandra Cain'i zalim su\u00e7 lordu Black Mask'ten kurtarmaya \u00e7al\u0131\u015fmalar\u0131n\u0131 konu ediniyor.", "release_date": "2020-02-05", "popularity": 143.896, "original_title": "Birds of Prey (and the Fantabulous Emancipation of One Harley Quinn)", "backdrop_path": "/uozb2VeD87YmhoUP1RrGWfzuCrr.jpg", "vote_count": 3333, "video": false, "adult": false, "vote_average": 7.2, "genre_ids": [28, 35, 80], "id": 495764, "original_language": "en"}, {"poster_path": "/toXlZfW02yGkPxGg7IXixAsYz3N.jpg", "title": "Derin Sular", "overview": "Bir denizalt\u0131 ekibi, suyun alt\u0131ndaki laboratuvarlar\u0131nda \u00e7al\u0131\u015fmaktad\u0131r. Ancak denizalt\u0131nda \u00e7al\u0131\u015fmalar\u0131na devam ederken d\u00fcnya \u00fczerinde b\u00fcy\u00fck bir deprem olur. Bu depremin sonucunda ise binlerce km denizin alt\u0131nda bulunan ekip ya\u015fam m\u00fccadelesi vermek zorunda kalacak, kar\u015f\u0131lar\u0131na ummad\u0131klar\u0131 zorluklar \u00e7\u0131kacakt\u0131r.", "release_date": "2020-01-08", "popularity": 143.71, "original_title": "Underwater", "backdrop_path": "/ww7eC3BqSbFsyE5H5qMde8WkxJ2.jpg", "vote_count": 902, "video": false, "adult": false, "vote_average": 6.4, "genre_ids": [27, 878, 28, 53], "id": 443791, "original_language": "en"}, {"poster_path": "/jFAaEccX9W9mWieCPSmrqjUJuTC.jpg", "title": "Star Wars: Skywalker'\u0131n Y\u00fckseli\u015fi", "overview": "Kylo Ren, B\u00fcy\u00fck Lider Snoke'u \u00f6ld\u00fcrmesinin ard\u0131ndan \u0130lk D\u00fczen'in yeni B\u00fcy\u00fck Lider'i olmu\u015ftur. Ac\u0131mas\u0131z y\u00f6netiminin alt\u0131nda galaksi yava\u015f yava\u015f umutsuzlu\u011fa kap\u0131lmaktad\u0131r. Luke Skywalker'\u0131n G\u00fc\u00e7'le birle\u015fmesinden sonra Rey kendi i\u00e7indeki g\u00fcc\u00fc benimsemi\u015f, onu ge\u00e7mi\u015fte tutan ba\u011flar\u0131n\u0131 kesmeyi ba\u015farm\u0131\u015ft\u0131r. Kylo Ren ve Rey'in aras\u0131ndaki \u00e7at\u0131\u015fma giderek artarken, \u0130lk D\u00fczen'de de i\u00e7sel \u00e7alkant\u0131lar ya\u015fanmaktad\u0131r. G\u00fc\u00e7te kalabilmek i\u00e7in giderek ac\u0131mas\u0131zla\u015fan Kylo Ren, onu yenmek i\u00e7in s\u00fcrekli \u00e7al\u0131\u015fan Rey, tekrar ortaya \u00e7\u0131kan Ren \u015e\u00f6valyeleri, Direni\u015f'i b\u00fcy\u00fctmeye \u00e7al\u0131\u015fan Poe ve Fin, karanl\u0131\u011f\u0131n ve ayd\u0131nl\u0131\u011f\u0131n sava\u015f\u0131 galaksideki t\u00fcm dengeleri de\u011fi\u015ftirecektir...", "release_date": "2019-12-18", "popularity": 134.095, "original_title": "Star Wars: The Rise of Skywalker", "backdrop_path": "/jOzrELAzFxtMx2I4uDGHOotdfsS.jpg", "vote_count": 4181, "video": false, "adult": false, "vote_average": 6.5, "genre_ids": [28, 12, 878], "id": 181812, "original_language": "en"}, {"poster_path": "/w8AyCg3d2eRphfJSZAuNEvhiiuT.jpg", "title": "Jumanji: Yeni Seviye", "overview": "\u00c7ete geri d\u00f6n\u00fcyor ama bu sefer oyun de\u011fi\u015fiyor. Jumanji\u2019ye, i\u00e7lerinden birini kurtarmak i\u00e7in d\u00f6nd\u00fcklerinde, hi\u00e7bir \u015feyin bekledikleri gibi olmad\u0131\u011f\u0131n\u0131 ke\u015ffediyorlar. \u00c7ete, d\u00fcnyan\u0131n en tehlikeli oyunundan ka\u00e7abilmek i\u00e7in, bilinmeyen ve ke\u015ffedilmemi\u015f par\u00e7alar\u0131 bulmak ve kurak \u00e7\u00f6llerden karl\u0131 da\u011flara uzanan yollara meydan okumak zorunda kal\u0131yor.", "release_date": "2019-12-04", "popularity": 133.109, "original_title": "Jumanji: The Next Level", "backdrop_path": "/oLma4sWjqlXVr0E3jpaXQCytuG9.jpg", "vote_count": 3404, "video": false, "adult": false, "vote_average": 6.9, "genre_ids": [12, 35, 14], "id": 512200, "original_language": "en"}, {"poster_path": "/3VqDLgKLfNYSQYEGC5sjGhcPhn7.jpg", "title": "Hadi Gidelim", "overview": "Onward, babalar\u0131n\u0131 \u00e7ok k\u00fc\u00e7\u00fck ya\u015fta kaybeden iki gen\u00e7 elf karde\u015fin hikayesini konu ediniyor. Karde\u015fler, hat\u0131rlamakta zorland\u0131klar\u0131 ve \u00e7ok \u00f6zledikleri babalar\u0131 ile son bir g\u00fcn ge\u00e7irme f\u0131rsatlar\u0131n\u0131n oldu\u011funu \u00f6\u011frenirler. D\u00fcnyada var olan bir b\u00fcy\u00fc, onlar\u0131n babalar\u0131 ile kavu\u015fmalar\u0131n\u0131 sa\u011flayacakt\u0131r. Karde\u015fler, bu f\u0131rsat\u0131 ka\u00e7\u0131rmamak i\u00e7in ne yap\u0131p edip b\u00fcy\u00fcye sahip olman\u0131n yolunu bulmal\u0131d\u0131r. Kendilerini zorlu bir m\u00fccadeleye sokan karde\u015fler, b\u00fcy\u00fcye ula\u015f\u0131p babalar\u0131n\u0131 son bir kez g\u00f6rebilme imkan\u0131n\u0131 bulabilecekler midir?", "release_date": "2020-02-29", "popularity": 130.531, "original_title": "Onward", "backdrop_path": "/xFxk4vnirOtUxpOEWgA1MCRfy6J.jpg", "vote_count": 1446, "video": false, "adult": false, "vote_average": 8, "genre_ids": [16, 10751, 12, 35, 14], "id": 508439, "original_language": "en"}, {"poster_path": "/sZnWWiY1kDZQjx1o6w42lvRvdyP.jpg", "title": "New York'ta Ya\u011fmurlu Bir G\u00fcn", "overview": "\u00dcniversiteli \u00e2\u015f\u0131klar Gatsby (Timoth\u00e9e Chalamet) ve Ashleigh (Elle Fanning) New York\u2019ta ba\u015f ba\u015fa ge\u00e7irecekleri romantik ve g\u00fcne\u015fli bir hafta sonu planlar. Ancak \u015fehre ayak basmalar\u0131yla birlikte g\u00fczel hava yerini sa\u011fanak ya\u011f\u0131\u015fa b\u0131rak\u0131rken, kahramanlar\u0131m\u0131z\u0131n yollar\u0131 bu devasa ve karma\u015f\u0131k \u015fehirde ayr\u0131l\u0131r. Birbirinden tuhaf kar\u015f\u0131la\u015fmalar ve maceralar ya\u015fayan Gatsby ve Ashleigh, bir yandan da yeniden yan yana gelebilmenin yollar\u0131n\u0131 aramaktad\u0131r.", "release_date": "2019-07-26", "popularity": 128.141, "original_title": "A Rainy Day in New York", "backdrop_path": "/6fkqwqLEcDZOEAnBBfKAniwNxtx.jpg", "vote_count": 861, "video": false, "adult": false, "vote_average": 6.6, "genre_ids": [35, 10749], "id": 475303, "original_language": "en"}, {"poster_path": "/3DeEAwO42j4VmRdI4KSSN1VloM.jpg", "title": "Joker", "overview": "Joker, ba\u015far\u0131s\u0131z bir komedyen olan Arthur Fleck'in hayat\u0131na odaklan\u0131yor. Toplum taraf\u0131ndan d\u0131\u015flanan bir adam olan Arthur, hayatta yapayaln\u0131zd\u0131r. S\u00fcrekli bir ba\u011f kurma aray\u0131\u015f\u0131nda olan Arthur, ya\u015fam\u0131n\u0131 takt\u0131\u011f\u0131 iki maske ile ge\u00e7irir. G\u00fcnd\u00fczleri, ge\u00e7imini sa\u011flamak i\u00e7in palya\u00e7o maskesini y\u00fcz\u00fcne takan Arthur, geceleri ise asla \u00fczerinden silip atamayaca\u011f\u0131 bir maske takar. Babas\u0131z b\u00fcy\u00fcyen Arthur\u2019u en yak\u0131n arkada\u015f\u0131 olan annesi Happy ad\u0131yla \u00e7a\u011f\u0131r\u0131r. Bu lakap, Arthur\u2019un i\u00e7indeki ac\u0131y\u0131 gizlemesine yard\u0131mc\u0131 olur. Ancak maruz kald\u0131\u011f\u0131 zorbal\u0131klar, onun gitgide toluma ayk\u0131r\u0131 bir adam haline gelmesine neden olur. Yava\u015f yava\u015f psikolojik olarak tekinsiz sulara yelken a\u00e7\u0131lan Arthur, bir s\u00fcre sonra kendisini Gotham \u015eehri\u2019nde su\u00e7 ve kaosun i\u00e7inde bulur. Arthur, zamanla kendi kimli\u011finden uzakla\u015f\u0131p Joker karakterine b\u00fcr\u00fcn\u00fcr.", "release_date": "2019-10-02", "popularity": 119.545, "original_title": "Joker", "backdrop_path": "/f5F4cRhQdUbyVbB5lTNCwUzD6BP.jpg", "vote_count": 11834, "video": false, "adult": false, "vote_average": 8.2, "genre_ids": [80, 53, 18], "id": 475557, "original_language": "en"}, {"poster_path": "/yUgwQBgMDnVQ09496BAFvmBqmoo.jpg", "title": "Arabalar", "overview": "Piston Kupas\u0131 i\u00e7in The King ve Chick Hicks\u2019e kar\u015f\u0131 yar\u0131\u015fmak \u00fczere Kaliforniya\u2019ya gitmekte olan me\u015fhur yar\u0131\u015f arabas\u0131 Lightning McQueen, kaza ile Radiator Springs ad\u0131ndaki k\u00fc\u00e7\u00fck bir kasaban\u0131n yollar\u0131na zarar verir. \u00dcstelik kendisinin de tamir olmas\u0131 i\u00e7in \u00e7ok \u00e7al\u0131\u015fmas\u0131 gerekmektedir. Bu s\u0131rada bu olayla beraber o kasabada ge\u00e7irdi\u011fi zamanlarda dostluklar edinir ve ger\u00e7ek sevgiyi ya\u015far. Hatta a\u015fk\u0131 bile katar ya\u015fam\u0131na. Bu k\u00fc\u00e7\u00fck kasabada kald\u0131\u011f\u0131 s\u00fcrece de\u011ferleri de\u011fi\u015fmeye ba\u015flar. \u0130\u015fte ancak ondan sonra ger\u00e7ek bir kazanan olmaya haz\u0131r hale gelecektir.", "release_date": "2006-06-08", "popularity": 118.562, "original_title": "Cars", "backdrop_path": "/sd4xN5xi8tKRPrJOWwNiZEile7f.jpg", "vote_count": 9156, "video": false, "adult": false, "vote_average": 6.8, "genre_ids": [12, 16, 35, 10751], "id": 920, "original_language": "en"}, {"poster_path": "/8wcL25ODjWDIwkahTg40WFMKOXC.jpg", "title": "Pretty Little Stalker", "overview": "", "release_date": "2018-12-11", "popularity": 111.096, "original_title": "Pretty Little Stalker", "backdrop_path": "/fdsgSNNwO6SWpPMxhKCN1f3BgD5.jpg", "vote_count": 2, "video": false, "adult": false, "vote_average": 4.5, "genre_ids": [53], "id": 621300, "original_language": "en"}, {"poster_path": "/cTzIxbvk3zcvN2X4PLaEdnRkPvh.jpg", "title": "1917", "overview": "Film, I. D\u00fcnya Sava\u015f\u0131 s\u0131ras\u0131nda bir tuza\u011fa do\u011fru gitmekte olan bir tabur askerin hayat\u0131n\u0131 kurtaracak mesaj\u0131, zamanla yar\u0131\u015farak iletmeye \u00e7al\u0131\u015fan iki askerin hik\u00e2yesini anlat\u0131yor.", "release_date": "2019-12-25", "popularity": 106.16, "original_title": "1917", "backdrop_path": "/2WgieNR1tGHlpJUsolbVzbUbE1O.jpg", "vote_count": 4445, "video": false, "adult": false, "vote_average": 8, "genre_ids": [28, 18, 53, 10752], "id": 530915, "original_language": "en"}, {"poster_path": "/zn7feouGPU8sELez4qvpp0EtgeQ.jpg", "title": "Love Wedding Repeat", "overview": "Jack k\u0131z karde\u015finin d\u00fc\u011f\u00fcn\u00fcnde zorlu konuklar, dizginlenemeyen kaos ve bir a\u015fk ihtimali ile u\u011fra\u015f\u0131rken ayn\u0131 g\u00fcn\u00fcn farkl\u0131 versiyonlar\u0131 ya\u015fan\u0131r.", "release_date": "2020-04-10", "popularity": 102.757, "original_title": "Love Wedding Repeat", "backdrop_path": "/ruxOWt2iCPM4tV2PY3OuYJHt4Do.jpg", "vote_count": 190, "video": false, "adult": false, "vote_average": 5.8, "genre_ids": [35], "id": 624808, "original_language": "en"}, {"poster_path": "/7W0G3YECgDAfnuiHG91r8WqgIOe.jpg", "title": "Trolls World Tour", "overview": "", "release_date": "2020-03-12", "popularity": 98.801, "original_title": "Trolls World Tour", "backdrop_path": "/qsxhnirlp7y4Ae9bd11oYJSX59j.jpg", "vote_count": 444, "video": false, "adult": false, "vote_average": 7.7, "genre_ids": [12, 16, 35, 14, 10402, 10751], "id": 446893, "original_language": "en"}, {"poster_path": "/h1JzHjFJXNJb3QTCwWmm2UbWEwn.jpg", "title": "Hala \u0130nan\u0131yorum", "overview": "I Still Believe, Jeremy Camp'in ayn\u0131 isimli adl\u0131 kitab\u0131ndan beyaz perdeye aktar\u0131ld\u0131. Film, Camp'in ilk e\u015fi ile olan ili\u015fkisini oda\u011f\u0131na al\u0131yor. Camp, ilk e\u015fi Melissa ile \u00f6lmek \u00fczereyken a\u015f\u0131k olur ve evlenir. Melissa'n\u0131n t\u00fcm v\u00fccuduna kanser yay\u0131lm\u0131\u015ft\u0131r. \u00c7ift, 2000 y\u0131l\u0131nda tan\u0131\u015f\u0131r ve evlenmelerinden d\u00f6rt bu\u00e7uk ay sonra Melissa 2001 y\u0131l\u0131nda hayat\u0131n\u0131 kaybeder. I Still Believe, hristiyan m\u00fczisyen Jeremy Camp'in ergenlik y\u0131llar\u0131na g\u00f6t\u00fcr\u00fcyor. Camp'in yeniden hayata tutunmas\u0131 ise gelecekte ikinci e\u015fi olacak olan Adrienne ile tan\u0131\u015fmas\u0131yla olur.", "release_date": "2020-03-12", "popularity": 98.167, "original_title": "I Still Believe", "backdrop_path": "/rMkheZl9Zi2auEQp877cOWUTCKs.jpg", "vote_count": 154, "video": false, "adult": false, "vote_average": 7.3, "genre_ids": [18, 10402], "id": 585244, "original_language": "en"}]}